%YAML 1.1
%TAG !u! tag:unity3d.com,2011:
--- !u!21 &2100000
Material:
  serializedVersion: 8
  m_ObjectHideFlags: 0
  m_CorrespondingSourceObject: {fileID: 0}
  m_PrefabInstance: {fileID: 0}
  m_PrefabAsset: {fileID: 0}
  m_Name: zombe green
  m_Shader: {fileID: 4800000, guid: 76374158b4c4e5744b394e9290aae693, type: 3}
  m_ValidKeywords:
  - _TEX_ON
  m_InvalidKeywords:
  - _OUTL_ON
  m_LightmapFlags: 4
  m_EnableInstancingVariants: 0
  m_DoubleSidedGI: 0
  m_CustomRenderQueue: -1
  stringTagMap: {}
  disabledShaderPasses: []
  m_SavedProperties:
    serializedVersion: 3
    m_TexEnvs:
    - _BumpMap:
        m_Texture: {fileID: 0}
        m_Scale: {x: 1, y: 1}
        m_Offset: {x: 0, y: 0}
    - _DecalTex:
        m_Texture: {fileID: 0}
        m_Scale: {x: 1, y: 1}
        m_Offset: {x: 0, y: 0}
    - _MainTex:
        m_Texture: {fileID: 2800000, guid: 779c8719916a92d43a722795400db45d, type: 3}
        m_Scale: {x: 1, y: 1}
        m_Offset: {x: 0, y: 0}
    - _ToonShade:
        m_Texture: {fileID: 2800000, guid: 39413e2567f4b452db0d4a76dbef5419, type: 3}
        m_Scale: {x: 1, y: 1}
        m_Offset: {x: 0, y: 0}
    m_Ints: []
    m_Floats:
    - _Asym: 0
    - _Brightness: 1
    - _Cull: 0
    - _Cutoff: 0.5
    - _DS: 0
    - _DetailTex: 1
    - _Outl: 1
    - _Outline: 0.5
    - _Shininess: 0.078125
    - _TintColor: 0
    - _TrOp: 0
    - _Trans: 0
    - _VertexColor: 0
    m_Colors:
    - _Asymmetry: {r: 0, g: 0.25, b: 0.5, a: 0}
    - _Color: {r: 0.8, g: 0.8, b: 0.8, a: 1}
    - _OutlineColor: {r: 0.1764706, g: 0.11764706, b: 0.05882353, a: 1}
    - _SpecColor: {r: 0.5, g: 0.5, b: 0.5, a: 1}
  m_BuildTextureStacks: []
